[
    {
        "@_fa": "true", 
        "affiliation": [
            {
                "@_fa": "true", 
                "affiliation-city": "Sendai", 
                "affiliation-country": "Japan", 
                "affiliation-url": "https://api.elsevier.com/content/affiliation/affiliation_id/60008435", 
                "affilname": "Tohoku University", 
                "afid": "60008435"
            }
        ], 
        "author": [
            {
                "@_fa": "true", 
                "@seq": "1", 
                "afid": [
                    {
                        "$": "60008435", 
                        "@_fa": "true"
                    }
                ], 
                "authid": "56587183800", 
                "authname": "Takahashi S.", 
                "author-url": "https://api.elsevier.com/content/author/author_id/56587183800", 
                "given-name": "Shuntaro", 
                "initials": "S.", 
                "surname": "Takahashi"
            }, 
            {
                "@_fa": "true", 
                "@seq": "2", 
                "afid": [
                    {
                        "$": "60008435", 
                        "@_fa": "true"
                    }
                ], 
                "authid": "7403938886", 
                "authname": "Takahashi N.", 
                "author-url": "https://api.elsevier.com/content/author/author_id/7403938886", 
                "given-name": "Naoki", 
                "initials": "N.", 
                "surname": "Takahashi"
            }, 
            {
                "@_fa": "true", 
                "@seq": "3", 
                "afid": [
                    {
                        "$": "60008435", 
                        "@_fa": "true"
                    }
                ], 
                "authid": "56649714800", 
                "authname": "Todoroki N.", 
                "author-url": "https://api.elsevier.com/content/author/author_id/56649714800", 
                "given-name": "Naoto", 
                "initials": "N.", 
                "surname": "Todoroki"
            }, 
            {
                "@_fa": "true", 
                "@seq": "4", 
                "afid": [
                    {
                        "$": "60008435", 
                        "@_fa": "true"
                    }
                ], 
                "authid": "7006154275", 
                "authname": "Wadayama T.", 
                "author-url": "https://api.elsevier.com/content/author/author_id/7006154275", 
                "given-name": "Toshimasa", 
                "initials": "T.", 
                "surname": "Wadayama"
            }
        ], 
        "dc:description": "Voltammetric dealloying is a typical method to synthesize Pt-shell/less-noble metal (M) alloy core nanoparticles (NPs) toward the oxygen reduction reaction (ORR). The pristine nanostructures of the Pt-M alloy NPs should determine the ORR activity of the dealloyed NPs. In this study, we investigated the voltammetric dealloying behavior of the Pt-Co and nitrogenintroduced Pt-Co alloy NPs generated by synchronous arc-plasma deposition of Pt and Co. The results showed that the dealloying behavior is sensitive to cobalt nitride in the pristine NPs, leading to the preferential generation of a Pt-rich shell/Pt-Co alloy core architecture having enhanced ORR activity.", 
        "dc:title": "Dealloying of nitrogen-introduced pt-co alloy nanoparticles: Preferential core-shell formation with enhanced activity for oxygen reduction reaction", 
        "prism:coverDate": "2016-12-31", 
        "prism:doi": "10.1021/acsomega.6b00412", 
        "prism:eIssn": "24701343", 
        "prism:url": "https://api.elsevier.com/content/abstract/scopus_id/85019347095"
    }, 
    {
        "@_fa": "true", 
        "affiliation": [
            {
                "@_fa": "true", 
                "affiliation-city": "Kerman", 
                "affiliation-country": "Iran", 
                "affiliation-url": "https://api.elsevier.com/content/affiliation/affiliation_id/60138498", 
                "affilname": "Graduate University of Advanced Technology", 
                "afid": "60138498"
            }, 
            {
                "@_fa": "true", 
                "affiliation-city": "Tehran", 
                "affiliation-country": "Iran", 
                "affiliation-url": "https://api.elsevier.com/content/affiliation/affiliation_id/60027546", 
                "affilname": "Payame Noor University", 
                "afid": "60027546"
            }
        ], 
        "authkeywords": "Drug analysis | Ionic liquids | Isoproterenol | Magnetic core-shell nanoparticles", 
        "author": [
            {
                "@_fa": "true", 
                "@seq": "1", 
                "afid": [
                    {
                        "$": "60027546", 
                        "@_fa": "true"
                    }
                ], 
                "authid": "57203777605", 
                "authname": "Mohammadi S.Z.", 
                "author-url": "https://api.elsevier.com/content/author/author_id/57203777605", 
                "given-name": "Sayed Zia", 
                "initials": "S.Z.", 
                "surname": "Mohammadi"
            }, 
            {
                "@_fa": "true", 
                "@seq": "2", 
                "afid": [
                    {
                        "$": "60138498", 
                        "@_fa": "true"
                    }
                ], 
                "authid": "24168001700", 
                "authname": "Beitollahi H.", 
                "author-url": "https://api.elsevier.com/content/author/author_id/24168001700", 
                "given-name": "Hadi", 
                "initials": "H.", 
                "surname": "Beitollahi"
            }, 
            {
                "@_fa": "true", 
                "@seq": "3", 
                "afid": [
                    {
                        "$": "60027546", 
                        "@_fa": "true"
                    }
                ], 
                "authid": "57192837466", 
                "authname": "Afzali H.", 
                "author-url": "https://api.elsevier.com/content/author/author_id/57192837466", 
                "given-name": "Hakimeh", 
                "initials": "H.", 
                "surname": "Afzali"
            }
        ], 
        "dc:description": "A new isoproterenol electrochemical nano sensor was fabricated using a acarbon paste electrode modified with ionic liquid (n-hexyl-3-methylimidazolium hexafluoro phosphate) and magnetic core-shell nanoparticles (MCSILCPE). The electrochemical study of the modified electrode, as well as its efficiency for oxidation of isoproterenol, is described. Differential pulse voltammetry (DPV) exhibits a linear dynamic range from 1.0\u00d710  to 7.0\u00d710  M isoproterenol. The limit of detection was equal to 6.3\u00d710  M. The electrode was also employed to determination of isoproterenol in real samples. -6 \u22124 -7", 
        "dc:title": "A novel electrochemical nanosensor for voltammetric determination of isoproterenol", 
        "prism:coverDate": "2016-12-31", 
        "prism:eIssn": "20084226", 
        "prism:url": "https://api.elsevier.com/content/abstract/scopus_id/85008423039"
    }, 
    {
        "@_fa": "true", 
        "affiliation": [
            {
                "@_fa": "true", 
                "affiliation-city": "Kumasi", 
                "affiliation-country": "Ghana", 
                "affiliation-url": "https://api.elsevier.com/content/affiliation/affiliation_id/60071885", 
                "affilname": "Kwame Nkrumah University of Science and Technology", 
                "afid": "60071885"
            }, 
            {
                "@_fa": "true", 
                "affiliation-city": "Nantes", 
                "affiliation-country": "France", 
                "affiliation-url": "https://api.elsevier.com/content/affiliation/affiliation_id/60032006", 
                "affilname": "Universit\u00e9 de Nantes", 
                "afid": "60032006"
            }, 
            {
                "@_fa": "true", 
                "affiliation-city": "Trieste", 
                "affiliation-country": "Italy", 
                "affiliation-url": "https://api.elsevier.com/content/affiliation/affiliation_id/60031745", 
                "affilname": "Abdus Salam International Centre for Theoretical Physics", 
                "afid": "60031745"
            }, 
            {
                "@_fa": "true", 
                "affiliation-city": "Accra", 
                "affiliation-country": "Ghana", 
                "affiliation-url": "https://api.elsevier.com/content/affiliation/affiliation_id/60017910", 
                "affilname": "University of Ghana", 
                "afid": "60017910"
            }, 
            {
                "@_fa": "true", 
                "affiliation-city": "Newcastle", 
                "affiliation-country": "United Kingdom", 
                "affiliation-url": "https://api.elsevier.com/content/affiliation/affiliation_id/60006222", 
                "affilname": "Newcastle University", 
                "afid": "60006222"
            }
        ], 
        "authkeywords": "carbon nanomaterials | DFT | LDA | polybromides", 
        "author": [
            {
                "@_fa": "true", 
                "@seq": "1", 
                "afid": [
                    {
                        "$": "60017910", 
                        "@_fa": "true"
                    }, 
                    {
                        "$": "60032006", 
                        "@_fa": "true"
                    }
                ], 
                "authid": "36674204900", 
                "authname": "Yaya A.", 
                "author-url": "https://api.elsevier.com/content/author/author_id/36674204900", 
                "given-name": "A.", 
                "initials": "A.", 
                "surname": "Yaya"
            }, 
            {
                "@_fa": "true", 
                "@seq": "2", 
                "afid": [
                    {
                        "$": "60032006", 
                        "@_fa": "true"
                    }
                ], 
                "authid": "7004436573", 
                "authname": "Ewels C.P.", 
                "author-url": "https://api.elsevier.com/content/author/author_id/7004436573", 
                "given-name": "C. P.", 
                "initials": "C.P.", 
                "surname": "Ewels"
            }, 
            {
                "@_fa": "true", 
                "@seq": "3", 
                "afid": [
                    {
                        "$": "60017910", 
                        "@_fa": "true"
                    }
                ], 
                "authid": "9432632100", 
                "authname": "Efavi J.K.", 
                "author-url": "https://api.elsevier.com/content/author/author_id/9432632100", 
                "given-name": "J. K.", 
                "initials": "J.K.", 
                "surname": "Efavi"
            }, 
            {
                "@_fa": "true", 
                "@seq": "4", 
                "afid": [
                    {
                        "$": "60017910", 
                        "@_fa": "true"
                    }
                ], 
                "authid": "26325449500", 
                "authname": "Agyei-Tuffour B.", 
                "author-url": "https://api.elsevier.com/content/author/author_id/26325449500", 
                "given-name": "B.", 
                "initials": "B.", 
                "surname": "Agyei-Tuffour"
            }, 
            {
                "@_fa": "true", 
                "@seq": "5", 
                "afid": [
                    {
                        "$": "60017910", 
                        "@_fa": "true"
                    }
                ], 
                "authid": "56458820500", 
                "authname": "Kan-Dapaah K.", 
                "author-url": "https://api.elsevier.com/content/author/author_id/56458820500", 
                "given-name": "K.", 
                "initials": "K.", 
                "surname": "Kan-Dapaah"
            }, 
            {
                "@_fa": "true", 
                "@seq": "6", 
                "afid": [
                    {
                        "$": "60017910", 
                        "@_fa": "true"
                    }
                ], 
                "authid": "57194620819", 
                "authname": "Onwona-Agyeman B.", 
                "author-url": "https://api.elsevier.com/content/author/author_id/57194620819", 
                "given-name": "B.", 
                "initials": "B.", 
                "surname": "Onwona-Agyeman"
            }, 
            {
                "@_fa": "true", 
                "@seq": "7", 
                "afid": [
                    {
                        "$": "60071885", 
                        "@_fa": "true"
                    }
                ], 
                "authid": "16028109500", 
                "authname": "Abavare E.K.K.", 
                "author-url": "https://api.elsevier.com/content/author/author_id/16028109500", 
                "given-name": "E. K.K.", 
                "initials": "E.K.K.", 
                "surname": "Abavare"
            }, 
            {
                "@_fa": "true", 
                "@seq": "8", 
                "afid": [
                    {
                        "$": "60031745", 
                        "@_fa": "true"
                    }
                ], 
                "authid": "14024511600", 
                "authname": "Hassanali A.", 
                "author-url": "https://api.elsevier.com/content/author/author_id/14024511600", 
                "given-name": "Ali", 
                "initials": "A.", 
                "surname": "Hassanali"
            }, 
            {
                "@_fa": "true", 
                "@seq": "9", 
                "afid": [
                    {
                        "$": "60006222", 
                        "@_fa": "true"
                    }
                ], 
                "authid": "57202724892", 
                "authname": "Briddon P.R.", 
                "author-url": "https://api.elsevier.com/content/author/author_id/57202724892", 
                "given-name": "P. R.", 
                "initials": "P.R.", 
                "surname": "Briddon"
            }
        ], 
        "dc:description": "We use a density functional theory approach under the local density approximation (DFT/LDA) to describe the formation of polybromide chain structures, their stretching frequency modes and charge transfer induced by the interaction of these molecules with a graphene sheet. In many cases, we find polybromides to be more thermodynamically stable than the equivalent Br  molecular structures adsorbed on graphene sheet. This results in lower frequency stretch modes at around 170\u2013190\u00a0cm . We propose that these are rarely observed experimentally due to the bromination techniques used, which introduces molecular Br  into the carbon host material. Charge transfer with their host material means that these molecules and their associated hole charge in the neighbouring carbon materials, are then coulombically repelled from other bromine molecules which acts as a barrier to combination into polybromides. Our calculated barrier for polybromide formation (2Br \u2192Br ) on a graphene sheet was 0.35\u00a0eV which is an exothermic process with an enthalpy value of \u22120.28\u00a0eV. Therefore, thermodynamically, chain polybromide formation seems to be favourable but kinetically, is unlikely, since there is an activation barrier that needs to be overcome to give stable bromine chain structures. 2 2 2 4 \u22121", 
        "dc:title": "A study of polybromide chain formation using carbon nanomaterials via density functional theory approach", 
        "prism:coverDate": "2016-12-31", 
        "prism:doi": "10.1080/23311916.2016.1261509", 
        "prism:eIssn": "23311916", 
        "prism:url": "https://api.elsevier.com/content/abstract/scopus_id/85012887357"
    }, 
    {
        "@_fa": "true", 
        "affiliation": [
            {
                "@_fa": "true", 
                "affiliation-city": "Munich", 
                "affiliation-country": "Germany", 
                "affiliation-url": "https://api.elsevier.com/content/affiliation/affiliation_id/60019722", 
                "affilname": "Technical University of Munich", 
                "afid": "60019722"
            }, 
            {
                "@_fa": "true", 
                "affiliation-city": "Ludwigshafen", 
                "affiliation-country": "Germany", 
                "affiliation-url": "https://api.elsevier.com/content/affiliation/affiliation_id/60007616", 
                "affilname": "BASF SE", 
                "afid": "60007616"
            }
        ], 
        "author": [
            {
                "@_fa": "true", 
                "@seq": "1", 
                "afid": [
                    {
                        "$": "60019722", 
                        "@_fa": "true"
                    }
                ], 
                "authid": "55774440700", 
                "authname": "Soller B.", 
                "author-url": "https://api.elsevier.com/content/author/author_id/55774440700", 
                "given-name": "Benedikt S.", 
                "initials": "B.S.", 
                "surname": "Soller"
            }, 
            {
                "@_fa": "true", 
                "@seq": "2", 
                "afid": [
                    {
                        "$": "60007616", 
                        "@_fa": "true"
                    }
                ], 
                "authid": "47861422900", 
                "authname": "Salzinger S.", 
                "author-url": "https://api.elsevier.com/content/author/author_id/47861422900", 
                "given-name": "Stephan", 
                "initials": "S.", 
                "surname": "Salzinger"
            }, 
            {
                "@_fa": "true", 
                "@seq": "3", 
                "afid": [
                    {
                        "$": "60019722", 
                        "@_fa": "true"
                    }
                ], 
                "authid": "55169244500", 
                "authname": "Rieger B.", 
                "author-url": "https://api.elsevier.com/content/author/author_id/55169244500", 
                "given-name": "Bernhard", 
                "initials": "B.", 
                "surname": "Rieger"
            }
        ], 
        "dc:description": "This review focuses on introducing and explaining the rare earth metalmediated group transfer polymerization (REM-GTP) of polar monomers and is composed of three main sections: poly(vinylphosphonate)s, surface-initiated group transfer polymerization (SI-GTP), and extension to N-coordinating Michael-Type monomers (2-vinylpridine (2VP), 2-isopropenyl-2-oxazoline (IPOx)). The poly-(vinylphosphonate)s section is divided into two parts: radical, anionic, and silyl ketene acetal group transfer polymerization (SKA-GTP) of vinylphosphonates in comparison to REM-GTP, and properties of poly(vinylphosphonate)s. The mechanism of vinylphosphonate REM-GTP is discussed in detail for initiation and propagation including activation enthalpies \u03b4H and entropies \u03b4S according to the Eyring equation. SI-GTP is presented as a method for surface functionalization, and recent trends for 2VP and IPOx polymerization are summarized. This review will serve as a good resource or guideline for researchers who are currently working in the field of rare earth metal mediated polymerization catalysis as well as for those who are interested in beginning to employ rare earth metal complexes for the synthesis of new materials from polar monomers.", 
        "dc:title": "Rare earth metal-mediated precision polymerization of vinylphosphonates and conjugated nitrogen-containing vinyl monomers", 
        "prism:coverDate": "2016-12-31", 
        "prism:doi": "10.1021/acs.chemrev.5b00313", 
        "prism:eIssn": "15206890", 
        "prism:issn": "00092665", 
        "prism:url": "https://api.elsevier.com/content/abstract/scopus_id/85009080617"
    }, 
    {
        "@_fa": "true", 
        "affiliation": [
            {
                "@_fa": "true", 
                "affiliation-city": "Chengdu", 
                "affiliation-country": "China", 
                "affiliation-url": "https://api.elsevier.com/content/affiliation/affiliation_id/60016521", 
                "affilname": "Sichuan University", 
                "afid": "60016521"
            }
        ], 
        "author": [
            {
                "@_fa": "true", 
                "@seq": "1", 
                "afid": [
                    {
                        "$": "60016521", 
                        "@_fa": "true"
                    }
                ], 
                "authid": "56975760600", 
                "authname": "Liang S.", 
                "author-url": "https://api.elsevier.com/content/author/author_id/56975760600", 
                "given-name": "Shan", 
                "initials": "S.", 
                "surname": "Liang"
            }, 
            {
                "@_fa": "true", 
                "@seq": "2", 
                "afid": [
                    {
                        "$": "60016521", 
                        "@_fa": "true"
                    }
                ], 
                "authid": "35109987700", 
                "authname": "Shi Q.", 
                "author-url": "https://api.elsevier.com/content/author/author_id/35109987700", 
                "given-name": "Qiwu", 
                "initials": "Q.", 
                "surname": "Shi"
            }, 
            {
                "@_fa": "true", 
                "@seq": "3", 
                "afid": [
                    {
                        "$": "60016521", 
                        "@_fa": "true"
                    }
                ], 
                "authid": "56975611300", 
                "authname": "Zhu H.", 
                "author-url": "https://api.elsevier.com/content/author/author_id/56975611300", 
                "given-name": "Hongfu", 
                "initials": "H.", 
                "surname": "Zhu"
            }, 
            {
                "@_fa": "true", 
                "@seq": "4", 
                "afid": [
                    {
                        "$": "60016521", 
                        "@_fa": "true"
                    }
                ], 
                "authid": "57213932029", 
                "authname": "Peng B.", 
                "author-url": "https://api.elsevier.com/content/author/author_id/57213932029", 
                "given-name": "Bo", 
                "initials": "B.", 
                "surname": "Peng"
            }, 
            {
                "@_fa": "true", 
                "@seq": "5", 
                "afid": [
                    {
                        "$": "60016521", 
                        "@_fa": "true"
                    }
                ], 
                "authid": "57192370531", 
                "authname": "Huang W.", 
                "author-url": "https://api.elsevier.com/content/author/author_id/57192370531", 
                "given-name": "Wanxia", 
                "initials": "W.", 
                "surname": "Huang"
            }
        ], 
        "dc:description": "Vanadium dioxide (VO2), with reversible metal-semiconductor transition near room temperature, is a compelling candidate for thermochromic windows. Nanocomposite coatings derived from VO2 nanoparticles are particularly superior to VO2 films due to their advantages in large-scale preparation, flexible shaping, and regulation of optical properties. In this work, we developed a novel method for one-step hydrothermal synthesis of W-doped VO2 (M) nanorods and studied their application in large-scale infrared smart windows. On introducing tartaric acid as a new reductant, VO2 underwent a two-stage phase evolution from the pure phase comprising VO2 (A) nanobelts to VO2 (M) nanorods, instead of the conventional three-stage B-A-M phase evolution during hydrothermal synthesis. This transition is very favorable for the large-scale hydrothermal synthesis of VO2 (M). The phase-transition temperature of VO2 (M) nanoparticles can be regulated systematically by W doping, with a reduction efficiency of about 24.52 \u00b0C/atom % W. Moreover, VO2 (M) composite films were fabricated using a convenient roller coating method, which exhibited significant midinfrared transmission switching up to 31%, with a phase-transition temperature of about 37.3 \u00b0C. This work demonstrates the significant progress in the one-step hydrothermal synthesis of VO2 (M) nanorods and provides significant insights into their applications in infrared smart windows.", 
        "dc:title": "One-Step hydrothermal synthesis of W-Doped VO2 (M) nanorods with a tunable phase-transition temperature for infrared smart windows", 
        "prism:coverDate": "2016-12-31", 
        "prism:doi": "10.1021/acsomega.6b00221", 
        "prism:eIssn": "24701343", 
        "prism:url": "https://api.elsevier.com/content/abstract/scopus_id/85029156327"
    }
]